…
{% highlight r %}
series_baixa_media <- series_from_imdb %>% 
  group_by(series_name) %>% 
  summarise(media = mean(UserRating), mediana = median(UserRating)) %>% 
  filter(media < 8.2 | mediana <= 8.2)

series_baixa_media %>% 
  arrange(media)
{% endhighlight %}



{% highlight text %}
## # A tibble: 343 x 3
##                      series_name    media mediana
##                           <fctr>    <dbl>   <dbl>
##  1                 American Idol 5.021700    5.00
##  2                  Bionic Woman 5.088889    5.10
##  3                   Free Agents 6.140000    6.10
##  4        Bouquet Of Barbed Wire 6.200000    6.20
##  5          Hamarinn (The Cliff) 6.200000    6.20
##  6                       Work It 6.344444    5.90
##  7 How To Live With Your Parents 6.376923    6.40
##  8                         Cupid 6.414286    6.30
##  9 Marvel: Agents Of S.H.I.E.L.D 6.420000    6.60
## 10                        Bedlam 6.441667    6.55
## # ... with 333 more rows
…
The Simpson eh a serie do IMDB que tem menos episodios com notas r10. Comparemos com as piores series do IMDB:


{% highlight r %}
series_baixa_media %>% 
  arrange(media)
{% endhighlight %}



{% highlight text %}
## # A tibble: 343 x 3
##                      series_name    media mediana
##                           <fctr>    <dbl>   <dbl>
##  1                 American Idol 5.021700    5.00
##  2                  Bionic Woman 5.088889    5.10
##  3                   Free Agents 6.140000    6.10
##  4        Bouquet Of Barbed Wire 6.200000    6.20
##  5          Hamarinn (The Cliff) 6.200000    6.20
##  6                       Work It 6.344444    5.90
##  7 How To Live With Your Parents 6.376923    6.40
##  8                         Cupid 6.414286    6.30
##  9 Marvel: Agents Of S.H.I.E.L.D 6.420000    6.60
## 10                        Bedlam 6.441667    6.55
## # ... with 333 more rows
…
the_simp%>% 
  group_by(season) %>% 
  summarise(media = mean(UserRating), mediana = median(UserRating), desvio=sd(UserRating))
{% endhighlight %}



{% highlight text %}
## # A tibble: 28 x 4
##    season    media mediana    desvio
##     <int>    <dbl>   <dbl>     <dbl>
##  1      1 7.807692    7.80 0.2752621
##  2      2 8.040909    8.05 0.3445620
##  3      3 8.170833    8.20 0.3276785
##  4      4 8.272727    8.20 0.4495308
##  5      5 8.354545    8.40 0.3750902
##  6      6 8.332000    8.40 0.6080844
##  7      7 8.344000    8.30 0.3937851
##  8      8 8.228000    8.10 0.5326975
##  9      9 7.872000    7.90 0.6895167
## 10     10 7.591304    7.60 0.3410053
## # ... with 18 more rows
…
